Chapter 4 Working with large data | R / Bioconductor in the AnVIL Cloud
…
We will use the ‘tidyverse’ approach to data management, with data
represented as a tibble (a better-behaving data.frame) and a
‘pipe’ (%>%) connecting the output of one command with the input of
the next.

The colData() accessor provides annotations about each cell of the
LoomExperiment. Extract that information as a tibble so that we
can explore the data in some detail.

tbl <-
    colData(loom) %>%
    as_tibble()
print(tbl)

## # A tibble: 267,360 x 44
##    CellID analysis_protoc… analysis_protoc… analysis_workin… barcode bundle_uuid
##    <chr>  <chr>            <chr>            <chr>            <chr>   <chr>      
##  1 00016… optimus_v1.3.5   6e9a0638-4dcd-4… blessed          ATTGGA… c5df0207-1…
##  2 00027… optimus_v1.3.5   aaccd734-ef95-4… blessed          CGAATG… dde6b553-f…
##  3 0007f… optimus_v1.3.5   d9514087-a5b9-4… blessed          GATTCA… 2677fd9d-6…
##  4 000b8… optimus_v1.3.5   b115679e-1139-4… blessed          CGGCTA… a4606cc6-c…
##  5 000fa… optimus_v1.3.5   b115679e-1139-4… blessed          GTATTC… a4606cc6-c…
##  6 00155… optimus_v1.3.5   b115679e-1139-4… blessed          GAGCAG… a4606cc6-c…
##  7 0019d… optimus_v1.3.5   c8f7a0e8-3a4f-4… blessed          TAAACC… 9137888e-c…
##  8 001a0… optimus_v1.3.5   c8f7a0e8-3a4f-4… blessed          TGCTAC… 9137888e-c…
##  9 001b9… optimus_v1.3.5   9944ebca-03e8-4… blessed          ATTATC… 88f037c4-9…
## 10 001d3… optimus_v1.3.5   0989c692-05a5-4… blessed          GGTATT… 8c6e51e8-e…
## # … with 267,350 more rows, and 38 more variables: bundle_version <chr>,
## #   cell_suspension.genus_species.ontology <chr>,
## #   cell_suspension.genus_species.ontology_label <chr>,
## #   cell_suspension.provenance.document_id <chr>, derived_organ_label <chr>,
## #   derived_organ_ontology <chr>, derived_organ_parts_label <chr>,
## #   derived_organ_parts_ontology <chr>,
## #   donor_organism.development_stage.ontology <chr>,
## #   donor_organism.development_stage.ontology_label <chr>,
## #   donor_organism.diseases.ontology <chr>,
…
4.8 Donor provenance and organ labels

The variable columns are also easily selected

tbl_var <-
    tbl %>%
    select_if(~ length(unique(.)) != 1)

print(tbl_var)

## # A tibble: 267,360 x 27
##    CellID analysis_protoc… barcode bundle_uuid bundle_version cell_suspension…
##    <chr>  <chr>            <chr>   <chr>       <chr>          <chr>           
##  1 00016… 6e9a0638-4dcd-4… ATTGGA… c5df0207-1… 2019-09-14T09… 788f3a1c-9369-4…
##  2 00027… aaccd734-ef95-4… CGAATG… dde6b553-f… 2019-09-14T09… b72a54dc-69d7-4…
##  3 0007f… d9514087-a5b9-4… GATTCA… 2677fd9d-6… 2019-09-14T11… 10510764-ed13-4…
##  4 000b8… b115679e-1139-4… CGGCTA… a4606cc6-c… 2019-09-14T11… ac1e511f-fa9e-4…
##  5 000fa… b115679e-1139-4… GTATTC… a4606cc6-c… 2019-09-14T11… ac1e511f-fa9e-4…
##  6 00155… b115679e-1139-4… GAGCAG… a4606cc6-c… 2019-09-14T11… ac1e511f-fa9e-4…
##  7 0019d… c8f7a0e8-3a4f-4… TAAACC… 9137888e-c… 2019-09-14T09… 78b08aea-c194-4…
##  8 001a0… c8f7a0e8-3a4f-4… TGCTAC… 9137888e-c… 2019-09-14T09… 78b08aea-c194-4…
##  9 001b9… 9944ebca-03e8-4… ATTATC… 88f037c4-9… 2019-09-14T10… b29ca10d-b611-4…
## 10 001d3… 0989c692-05a5-4… GGTATT… 8c6e51e8-e… 2019-09-14T10… 7e5f6787-ab75-4…
## # … with 267,350 more rows, and 21 more variables: derived_organ_label <chr>,
## #   derived_organ_ontology <chr>, derived_organ_parts_label <chr>,
## #   derived_organ_parts_ontology <chr>, donor_organism.diseases.ontology <chr>,
## #   donor_organism.diseases.ontology_label <chr>,
## #   donor_organism.human_specific.ethnicity.ontology <chr>,
## #   donor_organism.human_specific.ethnicity.ontology_label <chr>,
## #   donor_organism.is_living <chr>,
## #   donor_organism.provenance.document_id <chr>, dss_bundle_fqid <chr>,
## #   emptydrops_is_cell <chr>, file_uuid <chr>, file_version <chr>,
…
